\relax 
\providecommand\hyper@newdestlabel[2]{}
\catcode `"\active 
\providecommand\HyperFirstAtBeginDocument{\AtBeginDocument}
\HyperFirstAtBeginDocument{\ifx\hyper@anchor\@undefined
\global\let\oldcontentsline\contentsline
\gdef\contentsline#1#2#3#4{\oldcontentsline{#1}{#2}{#3}}
\global\let\oldnewlabel\newlabel
\gdef\newlabel#1#2{\newlabelxx{#1}#2}
\gdef\newlabelxx#1#2#3#4#5#6{\oldnewlabel{#1}{{#2}{#3}}}
\AtEndDocument{\ifx\hyper@anchor\@undefined
\let\contentsline\oldcontentsline
\let\newlabel\oldnewlabel
\fi}
\fi}
\global\let\hyper@last\relax 
\gdef\HyperFirstAtBeginDocument#1{#1}
\providecommand\HyField@AuxAddToFields[1]{}
\providecommand\HyField@AuxAddToCoFields[2]{}
\select@language{dutch}
\@writefile{toc}{\select@language{dutch}}
\@writefile{lof}{\select@language{dutch}}
\@writefile{lot}{\select@language{dutch}}
\@writefile{toc}{\contentsline {chapter}{\numberline {A}Broncode Native Android}{3}{appendix.A}}
\@writefile{lof}{\addvspace {10\p@ }}
\@writefile{lot}{\addvspace {10\p@ }}
\newlabel{ch:broncode}{{A}{3}{Broncode Native Android}{appendix.A}{}}
\@writefile{toc}{\contentsline {section}{\numberline {A.1}MainActivity.java}{3}{section.A.1}}
\@writefile{toc}{\contentsline {section}{\numberline {A.2}Post.java}{6}{section.A.2}}
\@writefile{toc}{\contentsline {section}{\numberline {A.3}PostsApi.java}{7}{section.A.3}}
\@writefile{toc}{\contentsline {section}{\numberline {A.4}ShowPostDetails.java}{8}{section.A.4}}
\@writefile{toc}{\contentsline {chapter}{\numberline {B}Broncode React Native Android}{10}{appendix.B}}
\@writefile{lof}{\addvspace {10\p@ }}
\@writefile{lot}{\addvspace {10\p@ }}
\newlabel{ch:broncode}{{B}{10}{Broncode React Native Android}{appendix.B}{}}
\@writefile{toc}{\contentsline {chapter}{\numberline {C}Broncode Benchmark}{14}{appendix.C}}
\@writefile{lof}{\addvspace {10\p@ }}
\@writefile{lot}{\addvspace {10\p@ }}
\newlabel{ch:benchmark}{{C}{14}{Broncode Benchmark}{appendix.C}{}}
