\select@language {dutch}
\contentsline {chapter}{\numberline {A}Broncode Native Android}{3}{appendix.A}
\contentsline {section}{\numberline {A.1}MainActivity.java}{3}{section.A.1}
\contentsline {section}{\numberline {A.2}Post.java}{6}{section.A.2}
\contentsline {section}{\numberline {A.3}PostsApi.java}{7}{section.A.3}
\contentsline {section}{\numberline {A.4}ShowPostDetails.java}{8}{section.A.4}
\contentsline {chapter}{\numberline {B}Broncode React Native Android}{10}{appendix.B}
\contentsline {chapter}{\numberline {C}Broncode Benchmark}{14}{appendix.C}
