\relax 
\providecommand\hyper@newdestlabel[2]{}
\catcode `"\active 
\providecommand\HyperFirstAtBeginDocument{\AtBeginDocument}
\HyperFirstAtBeginDocument{\ifx\hyper@anchor\@undefined
\global\let\oldcontentsline\contentsline
\gdef\contentsline#1#2#3#4{\oldcontentsline{#1}{#2}{#3}}
\global\let\oldnewlabel\newlabel
\gdef\newlabel#1#2{\newlabelxx{#1}#2}
\gdef\newlabelxx#1#2#3#4#5#6{\oldnewlabel{#1}{{#2}{#3}}}
\AtEndDocument{\ifx\hyper@anchor\@undefined
\let\contentsline\oldcontentsline
\let\newlabel\oldnewlabel
\fi}
\fi}
\global\let\hyper@last\relax 
\gdef\HyperFirstAtBeginDocument#1{#1}
\providecommand\HyField@AuxAddToFields[1]{}
\providecommand\HyField@AuxAddToCoFields[2]{}
\select@language{dutch}
\@writefile{toc}{\select@language{dutch}}
\@writefile{lof}{\select@language{dutch}}
\@writefile{lot}{\select@language{dutch}}
\newlabel{ch:voorwoord}{{}{2}{Voorwoord}{chapter*.1}{}}
\@writefile{toc}{\contentsline {chapter}{\numberline {1}Inleiding}{5}{chapter.1}}
\@writefile{lof}{\addvspace {10\p@ }}
\@writefile{lot}{\addvspace {10\p@ }}
\newlabel{ch:inleiding}{{1}{5}{Inleiding}{chapter.1}{}}
\@writefile{toc}{\contentsline {section}{\numberline {1.1}Probleemstelling en Onderzoeksvragen}{6}{section.1.1}}
\newlabel{sec:onderzoeksvragen}{{1.1}{6}{Probleemstelling en Onderzoeksvragen}{section.1.1}{}}
\@writefile{toc}{\contentsline {subsection}{\numberline {1.1.1}Plan van aanpak}{6}{subsection.1.1.1}}
\newlabel{planvanaanpak}{{1.1.1}{6}{Plan van aanpak}{subsection.1.1.1}{}}
\@writefile{toc}{\contentsline {subsection}{\numberline {1.1.2}Doel van het onderzoek}{7}{subsection.1.1.2}}
\newlabel{doel}{{1.1.2}{7}{Doel van het onderzoek}{subsection.1.1.2}{}}
\citation{LearningReactNative}
\@writefile{toc}{\contentsline {chapter}{\numberline {2}Methodologie}{8}{chapter.2}}
\@writefile{lof}{\addvspace {10\p@ }}
\@writefile{lot}{\addvspace {10\p@ }}
\newlabel{ch:methodologie}{{2}{8}{Methodologie}{chapter.2}{}}
\citation{ReactNative}
\citation{AppsUsingReactNative}
\@writefile{toc}{\contentsline {chapter}{\numberline {3}React Native}{11}{chapter.3}}
\@writefile{lof}{\addvspace {10\p@ }}
\@writefile{lot}{\addvspace {10\p@ }}
\newlabel{ch:reactnative}{{3}{11}{React Native}{chapter.3}{}}
\@writefile{lof}{\contentsline {figure}{\numberline {3.1}{\ignorespaces Een schematische voorstelling van hoe React Native gestructureerd is\relax }}{11}{figure.caption.3}}
\providecommand*\caption@xref[2]{\@setref\relax\@undefined{#1}}
\newlabel{figReactnativeStructure}{{3.1}{11}{Een schematische voorstelling van hoe React Native gestructureerd is\relax }{figure.caption.3}{}}
\citation{ReactNativeInstallation}
\citation{ReactNativeTroubleshooting}
\citation{ReactNativeSupport}
\@writefile{toc}{\contentsline {section}{\numberline {3.1}Installatie van de benodigde software}{13}{section.3.1}}
\@writefile{toc}{\contentsline {subsection}{\numberline {3.1.1}Installatie op Mac}{13}{subsection.3.1.1}}
\@writefile{toc}{\contentsline {subsection}{\numberline {3.1.2}Installatie op Windows}{14}{subsection.3.1.2}}
\@writefile{toc}{\contentsline {subsection}{\numberline {3.1.3}Installatie op Linux}{14}{subsection.3.1.3}}
\citation{React}
\citation{ReactNative}
\@writefile{toc}{\contentsline {section}{\numberline {3.2}Vereiste basiskennis}{15}{section.3.2}}
\@writefile{toc}{\contentsline {chapter}{\numberline {4}Native}{16}{chapter.4}}
\@writefile{lof}{\addvspace {10\p@ }}
\@writefile{lot}{\addvspace {10\p@ }}
\newlabel{ch:native}{{4}{16}{Native}{chapter.4}{}}
\citation{Androidstudio}
\citation{UpdateIDEAndTools}
\citation{UpdateIDEAndTools}
\@writefile{toc}{\contentsline {section}{\numberline {4.1}Installatie van de benodigde software}{17}{section.4.1}}
\@writefile{toc}{\contentsline {section}{\numberline {4.2}Vereiste basiskennis}{17}{section.4.2}}
\citation{LearningReactNative}
\@writefile{toc}{\contentsline {chapter}{\numberline {5}Vergelijking van de UI-componenten}{18}{chapter.5}}
\@writefile{lof}{\addvspace {10\p@ }}
\@writefile{lot}{\addvspace {10\p@ }}
\newlabel{ch:vegelijkingUIComponenten}{{5}{18}{Vergelijking van de UI-componenten}{chapter.5}{}}
\@writefile{lof}{\contentsline {figure}{\numberline {5.1}{\ignorespaces Een stukje voorbeeld code die alle basis UI componenten bevat.\relax }}{18}{figure.caption.4}}
\newlabel{figBasicUIComponents}{{5.1}{18}{Een stukje voorbeeld code die alle basis UI componenten bevat.\relax }{figure.caption.4}{}}
\citation{DrawerLayout}
\citation{CreatingANavigationDrawerAndroid}
\@writefile{toc}{\contentsline {section}{\numberline {5.1}DrawerLayout}{20}{section.5.1}}
\@writefile{lof}{\contentsline {figure}{\numberline {5.2}{\ignorespaces Een DrawerLayout bestaat standaard uit 2 componenten, een Navigation Drawer en een FrameLayout.\relax }}{20}{figure.caption.5}}
\newlabel{figDrawerLayout}{{5.2}{20}{Een DrawerLayout bestaat standaard uit 2 componenten, een Navigation Drawer en een FrameLayout.\relax }{figure.caption.5}{}}
\citation{DrawerLayoutAndroid}
\citation{DrawerLayoutAndroid}
\citation{DrawerLayoutAndroid}
\@writefile{toc}{\contentsline {subsection}{\numberline {5.1.1}DrawerLayout bij React Native Android}{21}{subsection.5.1.1}}
\@writefile{lof}{\contentsline {figure}{\numberline {5.3}{\ignorespaces Het cre\"eren van de view die de Navigation Drawer voorstelt.\relax }}{21}{figure.caption.6}}
\newlabel{figNavigationView}{{5.3}{21}{Het cre\"eren van de view die de Navigation Drawer voorstelt.\relax }{figure.caption.6}{}}
\@writefile{lof}{\contentsline {figure}{\numberline {5.4}{\ignorespaces Het cre\"eren van de view die de FrameLayout voorstelt.\relax }}{21}{figure.caption.7}}
\newlabel{figDrawerLayoutFrame}{{5.4}{21}{Het cre\"eren van de view die de FrameLayout voorstelt.\relax }{figure.caption.7}{}}
\citation{DrawerLayoutAndroid}
\@writefile{lof}{\contentsline {figure}{\numberline {5.5}{\ignorespaces Het toevoegen van de Navigation Drawer en FrameLayout aan de DrawerLayoutAndroid.\relax }}{22}{figure.caption.8}}
\newlabel{figDrawerLayoutReact}{{5.5}{22}{Het toevoegen van de Navigation Drawer en FrameLayout aan de DrawerLayoutAndroid.\relax }{figure.caption.8}{}}
\citation{CreatingANavigationDrawerAndroid}
\citation{CreatingANavigationDrawerAndroid}
\citation{CreatingANavigationDrawerAndroid}
\@writefile{toc}{\contentsline {subsection}{\numberline {5.1.2}DrawerLayout bij Native Android}{23}{subsection.5.1.2}}
\@writefile{lof}{\contentsline {figure}{\numberline {5.6}{\ignorespaces FrameLayout uit de Activity\_main.xml klasse die de DrawerLayout bevat.\relax }}{23}{figure.caption.9}}
\newlabel{figDrawerLayoutFrameLayout}{{5.6}{23}{FrameLayout uit de Activity\_main.xml klasse die de DrawerLayout bevat.\relax }{figure.caption.9}{}}
\@writefile{lof}{\contentsline {figure}{\numberline {5.7}{\ignorespaces FrameLayout uit de Activity\_main.xml klasse die de DrawerLayout bevat.\relax }}{23}{figure.caption.10}}
\newlabel{figDrawerLayoutListView}{{5.7}{23}{FrameLayout uit de Activity\_main.xml klasse die de DrawerLayout bevat.\relax }{figure.caption.10}{}}
\citation{CreatingANavigationDrawerAndroid}
\citation{CreatingANavigationDrawerAndroid}
\@writefile{lof}{\contentsline {figure}{\numberline {5.8}{\ignorespaces Het cre\"eren van een string-array die een lijst van tekst bevat om de ListView op te vullen.\relax }}{24}{figure.caption.11}}
\newlabel{figDrawerLayoutStringArray}{{5.8}{24}{Het cre\"eren van een string-array die een lijst van tekst bevat om de ListView op te vullen.\relax }{figure.caption.11}{}}
\@writefile{lof}{\contentsline {figure}{\numberline {5.9}{\ignorespaces De volledig opgebouwde DrawerLayout uit de Activity\_main.xml klasse.\relax }}{24}{figure.caption.12}}
\newlabel{figDrawerLayoutAndroid}{{5.9}{24}{De volledig opgebouwde DrawerLayout uit de Activity\_main.xml klasse.\relax }{figure.caption.12}{}}
\citation{CreatingANavigationDrawerAndroid}
\@writefile{lof}{\contentsline {figure}{\numberline {5.10}{\ignorespaces MainActivity.java voor het opvullen van de DrawerLayout met data.\relax }}{25}{figure.caption.13}}
\newlabel{figDrawerLayoutAndroid}{{5.10}{25}{MainActivity.java voor het opvullen van de DrawerLayout met data.\relax }{figure.caption.13}{}}
\citation{ViewPagerAndroid}
\@writefile{toc}{\contentsline {section}{\numberline {5.2}ViewPager}{26}{section.5.2}}
\@writefile{lof}{\contentsline {figure}{\numberline {5.11}{\ignorespaces Voorbeeld van hoe een ViewPager eruitziet, tevens is ook voorgesteld hoe er genavigeerd kan worden tussen de schermen.\relax }}{26}{figure.caption.14}}
\newlabel{figViewPagerVoorbeeldScherm}{{5.11}{26}{Voorbeeld van hoe een ViewPager eruitziet, tevens is ook voorgesteld hoe er genavigeerd kan worden tussen de schermen.\relax }{figure.caption.14}{}}
\citation{viewPagerReact}
\citation{viewPagerReact}
\@writefile{toc}{\contentsline {subsection}{\numberline {5.2.1}ViewPager bij React Native Android}{27}{subsection.5.2.1}}
\@writefile{lof}{\contentsline {figure}{\numberline {5.12}{\ignorespaces Het instellen van de marges en het centraal weergeven van de tekst voor elke kind View.\relax }}{27}{figure.caption.15}}
\newlabel{figStylesReact}{{5.12}{27}{Het instellen van de marges en het centraal weergeven van de tekst voor elke kind View.\relax }{figure.caption.15}{}}
\citation{viewPagerReact}
\@writefile{lof}{\contentsline {figure}{\numberline {5.13}{\ignorespaces Het cre\"eren van de vier kind views die in de ViewPagerAndroid komen.\relax }}{28}{figure.caption.16}}
\newlabel{figViewPagerReactChilds}{{5.13}{28}{Het cre\"eren van de vier kind views die in de ViewPagerAndroid komen.\relax }{figure.caption.16}{}}
\citation{viewPagerReact}
\@writefile{lof}{\contentsline {figure}{\numberline {5.14}{\ignorespaces Een volledig opgebouwde ViewPagerAndroid die vier kind views bevat.\relax }}{29}{figure.caption.17}}
\newlabel{figViewPagerReact}{{5.14}{29}{Een volledig opgebouwde ViewPagerAndroid die vier kind views bevat.\relax }{figure.caption.17}{}}
\citation{ViewPagerAndroid}
\citation{ViewPagerAndroid}
\citation{ViewPagerAndroid}
\@writefile{toc}{\contentsline {subsection}{\numberline {5.2.2}ViewPager bij Native Android}{30}{subsection.5.2.2}}
\@writefile{lof}{\contentsline {figure}{\numberline {5.15}{\ignorespaces Het aanmaken van een scrollview dat zal dienen als een fragment voor de ViewPager\relax }}{30}{figure.caption.18}}
\newlabel{figViewPagerScroll}{{5.15}{30}{Het aanmaken van een scrollview dat zal dienen als een fragment voor de ViewPager\relax }{figure.caption.18}{}}
\@writefile{lof}{\contentsline {figure}{\numberline {5.16}{\ignorespaces Het cre\"eren van een 'Fragment' klasse die een fragment kan teruggeven wanneer er een pagina aan de gebruiker getoond moet worden.\relax }}{30}{figure.caption.19}}
\newlabel{figViewPagerFragment}{{5.16}{30}{Het cre\"eren van een 'Fragment' klasse die een fragment kan teruggeven wanneer er een pagina aan de gebruiker getoond moet worden.\relax }{figure.caption.19}{}}
\citation{ViewPagerAndroid}
\citation{ViewPagerAndroid}
\@writefile{lof}{\contentsline {figure}{\numberline {5.17}{\ignorespaces Het toevoegen van een ViewPager element om de kind schermen te kunnen weergeven in een slideshow.\relax }}{31}{figure.caption.20}}
\newlabel{figViewPager}{{5.17}{31}{Het toevoegen van een ViewPager element om de kind schermen te kunnen weergeven in een slideshow.\relax }{figure.caption.20}{}}
\citation{ViewPagerAndroid}
\@writefile{lof}{\contentsline {figure}{\numberline {5.18}{\ignorespaces Het toevoegen van de kind schermen in de ScreenSlidePagerActivity.java klasse.\relax }}{32}{figure.caption.21}}
\newlabel{figViewPagerdeel1}{{5.18}{32}{Het toevoegen van de kind schermen in de ScreenSlidePagerActivity.java klasse.\relax }{figure.caption.21}{}}
\@writefile{lof}{\contentsline {figure}{\numberline {5.19}{\ignorespaces De ScreenSlidePagerAdapter klasse die zich in de ScreenSlidePagerActivity.java klasse bevindt.\relax }}{32}{figure.caption.22}}
\newlabel{figViewPagerdeel2}{{5.19}{32}{De ScreenSlidePagerAdapter klasse die zich in de ScreenSlidePagerActivity.java klasse bevindt.\relax }{figure.caption.22}{}}
\citation{JSONPlaceholder}
\@writefile{toc}{\contentsline {chapter}{\numberline {6}Proof of concept}{33}{chapter.6}}
\@writefile{lof}{\addvspace {10\p@ }}
\@writefile{lot}{\addvspace {10\p@ }}
\newlabel{ch:proofofconcept}{{6}{33}{Proof of concept}{chapter.6}{}}
\@writefile{lof}{\contentsline {figure}{\numberline {6.1}{\ignorespaces Een schematische weergave van wat mijn proof of concept juist inhoudt.\relax }}{33}{figure.caption.23}}
\newlabel{figProofOfConcept}{{6.1}{33}{Een schematische weergave van wat mijn proof of concept juist inhoudt.\relax }{figure.caption.23}{}}
\@writefile{toc}{\contentsline {section}{\numberline {6.1}Beschrijving van het Applicatieprofiel}{34}{section.6.1}}
\citation{LearningAndroidApplicationTesting}
\@writefile{toc}{\contentsline {section}{\numberline {6.2}Benchmarking}{35}{section.6.2}}
\@writefile{toc}{\contentsline {chapter}{\numberline {7}Resultaten}{36}{chapter.7}}
\@writefile{lof}{\addvspace {10\p@ }}
\@writefile{lot}{\addvspace {10\p@ }}
\newlabel{ch:resultaten}{{7}{36}{Resultaten}{chapter.7}{}}
\@writefile{toc}{\contentsline {section}{\numberline {7.1}Vergelijking van de UI-componenten}{36}{section.7.1}}
\@writefile{toc}{\contentsline {section}{\numberline {7.2}Proof of concept}{37}{section.7.2}}
\@writefile{lof}{\contentsline {figure}{\numberline {7.1}{\ignorespaces Grafiek die het gemiddeld geheugenverbruik tussen React Native en Native gaan vergelijken bij zowel GET, PUT en POST calls naar een API.\relax }}{37}{figure.caption.24}}
\newlabel{figGeheugenVerbruik}{{7.1}{37}{Grafiek die het gemiddeld geheugenverbruik tussen React Native en Native gaan vergelijken bij zowel GET, PUT en POST calls naar een API.\relax }{figure.caption.24}{}}
\@writefile{lof}{\contentsline {figure}{\numberline {7.2}{\ignorespaces Grafiek die het gemiddelde snelheid tussen React Native en Native gaan vergelijken bij zowel GET, PUT en POST calls naar een API.\relax }}{38}{figure.caption.25}}
\newlabel{figSnelheid}{{7.2}{38}{Grafiek die het gemiddelde snelheid tussen React Native en Native gaan vergelijken bij zowel GET, PUT en POST calls naar een API.\relax }{figure.caption.25}{}}
\@writefile{toc}{\contentsline {chapter}{\numberline {8}Conclusie}{39}{chapter.8}}
\@writefile{lof}{\addvspace {10\p@ }}
\@writefile{lot}{\addvspace {10\p@ }}
\newlabel{ch:conclusie}{{8}{39}{Conclusie}{chapter.8}{}}
\bibstyle{apacite}
\bibdata{tin-bachproef}
\@writefile{toc}{\contentsline {chapter}{\numberline {9}Vooruitblik op de toekomst}{40}{chapter.9}}
\@writefile{lof}{\addvspace {10\p@ }}
\@writefile{lot}{\addvspace {10\p@ }}
\newlabel{ch:vooruitblik}{{9}{40}{Vooruitblik op de toekomst}{chapter.9}{}}
\bibcite{Androidstudio}{{1}{{\APACyear {2016}}{\APACexlab {{\BCnt {1}}}}}{{Android}}{{Android}}}
\bibcite{CreatingANavigationDrawerAndroid}{{2}{{\APACyear {2016}}{\APACexlab {{\BCnt {2}}}}}{{Android}}{{Android}}}
\bibcite{UpdateIDEAndTools}{{3}{{\APACyear {2016}}{\APACexlab {{\BCnt {3}}}}}{{Android}}{{Android}}}
\bibcite{ViewPagerAndroid}{{4}{{\APACyear {2016}}{\APACexlab {{\BCnt {4}}}}}{{Android}}{{Android}}}
\bibcite{LearningReactNative}{{5}{{\APACyear {2016}}}{{Eisenman}}{{Eisenman}}}
\bibcite{AppsUsingReactNative}{{6}{{\APACyear {2016}}{\APACexlab {{\BCnt {1}}}}}{{Facebook}}{{Facebook}}}
\bibcite{DrawerLayoutAndroid}{{7}{{\APACyear {2016}}{\APACexlab {{\BCnt {2}}}}}{{Facebook}}{{Facebook}}}
\bibcite{React}{{8}{{\APACyear {2016}}{\APACexlab {{\BCnt {3}}}}}{{Facebook}}{{Facebook}}}
\bibcite{ReactNative}{{9}{{\APACyear {2016}}{\APACexlab {{\BCnt {4}}}}}{{Facebook}}{{Facebook}}}
\bibcite{ReactNativeInstallation}{{10}{{\APACyear {2016}}{\APACexlab {{\BCnt {5}}}}}{{Facebook}}{{Facebook}}}
\bibcite{ReactNativeSupport}{{11}{{\APACyear {2016}}{\APACexlab {{\BCnt {6}}}}}{{Facebook}}{{Facebook}}}
\bibcite{ReactNativeTroubleshooting}{{12}{{\APACyear {2016}}{\APACexlab {{\BCnt {7}}}}}{{Facebook}}{{Facebook}}}
\bibcite{viewPagerReact}{{13}{{\APACyear {2016}}{\APACexlab {{\BCnt {8}}}}}{{Facebook}}{{Facebook}}}
\bibcite{DrawerLayout}{{14}{{\APACyear {2016}}}{{http://i.stack.imgur.com/nrF9j.png}}{{http://i.stack.imgur.com/nrF9j.png}}}
\bibcite{LearningAndroidApplicationTesting}{{15}{{\APACyear {2015}}}{{Paul~Blundell}}{{Paul~Blundell}}}
\bibcite{JSONPlaceholder}{{16}{{\APACyear {2016}}}{{Typicode}}{{Typicode}}}
